<?xml version='1.0' encoding='UTF-8' ?>
<svg xmlns='http://www.w3.org/2000/svg' xmlns:xlink='http://www.w3.org/1999/xlink' class='svglite' width='864.00pt' height='432.00pt' viewBox='0 0 864.00 432.00'>
<defs>
  <style type='text/css'><![CDATA[
    .svglite line, .svglite polyline, .svglite polygon, .svglite path, .svglite rect, .svglite circle {
      fill: none;
      stroke: #000000;
      stroke-linecap: round;
      stroke-linejoin: round;
      stroke-miterlimit: 10.00;
    }
    .svglite text {
      white-space: pre;
    }
  ]]></style>
</defs>
<rect width='100%' height='100%' style='stroke: none; fill: #FFFFFF;'/>
<defs>
  <clipPath id='cpMC4wMHw4NjQuMDB8MC4wMHw0MzIuMDA='>
    <rect x='0.00' y='0.00' width='864.00' height='432.00' />
  </clipPath>
</defs>
<g clip-path='url(#cpMC4wMHw4NjQuMDB8MC4wMHw0MzIuMDA=)'>
</g>
<defs>
  <clipPath id='cpMC4wMHw4NjQuMDB8ODkuMzh8MzQyLjYy'>
    <rect x='0.000000000000050' y='89.38' width='864.00' height='253.24' />
  </clipPath>
</defs>
<g clip-path='url(#cpMC4wMHw4NjQuMDB8ODkuMzh8MzQyLjYy)'>
<rect x='0.000000000000064' y='89.38' width='864.00' height='253.24' style='stroke-width: 1.07; stroke: #FFFFFF; fill: #FFFFFF;' />
</g>
<g clip-path='url(#cpMC4wMHw4NjQuMDB8MC4wMHw0MzIuMDA=)'>
</g>
<defs>
  <clipPath id='cpMjI5LjYyfDgwMi42NXw5NC44NnwyNjUuNzc='>
    <rect x='229.62' y='94.86' width='573.04' height='170.91' />
  </clipPath>
</defs>
<g clip-path='url(#cpMjI5LjYyfDgwMi42NXw5NC44NnwyNjUuNzc=)'>
<rect x='229.62' y='94.86' width='573.04' height='170.91' style='stroke-width: 1.07; stroke: none; fill: #EBEBEB;' />
<polyline points='229.62,255.71 802.65,255.71 ' style='stroke-width: 1.07; stroke: #FFFFFF; stroke-linecap: butt;' />
<polyline points='229.62,238.96 802.65,238.96 ' style='stroke-width: 1.07; stroke: #FFFFFF; stroke-linecap: butt;' />
<polyline points='229.62,222.20 802.65,222.20 ' style='stroke-width: 1.07; stroke: #FFFFFF; stroke-linecap: butt;' />
<polyline points='229.62,205.45 802.65,205.45 ' style='stroke-width: 1.07; stroke: #FFFFFF; stroke-linecap: butt;' />
<polyline points='229.62,188.69 802.65,188.69 ' style='stroke-width: 1.07; stroke: #FFFFFF; stroke-linecap: butt;' />
<polyline points='229.62,171.94 802.65,171.94 ' style='stroke-width: 1.07; stroke: #FFFFFF; stroke-linecap: butt;' />
<polyline points='229.62,155.18 802.65,155.18 ' style='stroke-width: 1.07; stroke: #FFFFFF; stroke-linecap: butt;' />
<polyline points='229.62,138.42 802.65,138.42 ' style='stroke-width: 1.07; stroke: #FFFFFF; stroke-linecap: butt;' />
<polyline points='229.62,121.67 802.65,121.67 ' style='stroke-width: 1.07; stroke: #FFFFFF; stroke-linecap: butt;' />
<polyline points='229.62,104.91 802.65,104.91 ' style='stroke-width: 1.07; stroke: #FFFFFF; stroke-linecap: butt;' />
<polyline points='239.67,265.77 239.67,94.86 ' style='stroke-width: 1.07; stroke: #FFFFFF; stroke-linecap: butt;' />
<polyline points='256.43,265.77 256.43,94.86 ' style='stroke-width: 1.07; stroke: #FFFFFF; stroke-linecap: butt;' />
<polyline points='273.18,265.77 273.18,94.86 ' style='stroke-width: 1.07; stroke: #FFFFFF; stroke-linecap: butt;' />
<polyline points='289.94,265.77 289.94,94.86 ' style='stroke-width: 1.07; stroke: #FFFFFF; stroke-linecap: butt;' />
<polyline points='306.69,265.77 306.69,94.86 ' style='stroke-width: 1.07; stroke: #FFFFFF; stroke-linecap: butt;' />
<polyline points='323.45,265.77 323.45,94.86 ' style='stroke-width: 1.07; stroke: #FFFFFF; stroke-linecap: butt;' />
<polyline points='340.20,265.77 340.20,94.86 ' style='stroke-width: 1.07; stroke: #FFFFFF; stroke-linecap: butt;' />
<polyline points='356.96,265.77 356.96,94.86 ' style='stroke-width: 1.07; stroke: #FFFFFF; stroke-linecap: butt;' />
<polyline points='373.72,265.77 373.72,94.86 ' style='stroke-width: 1.07; stroke: #FFFFFF; stroke-linecap: butt;' />
<polyline points='390.47,265.77 390.47,94.86 ' style='stroke-width: 1.07; stroke: #FFFFFF; stroke-linecap: butt;' />
<polyline points='407.23,265.77 407.23,94.86 ' style='stroke-width: 1.07; stroke: #FFFFFF; stroke-linecap: butt;' />
<polyline points='423.98,265.77 423.98,94.86 ' style='stroke-width: 1.07; stroke: #FFFFFF; stroke-linecap: butt;' />
<polyline points='440.74,265.77 440.74,94.86 ' style='stroke-width: 1.07; stroke: #FFFFFF; stroke-linecap: butt;' />
<polyline points='457.49,265.77 457.49,94.86 ' style='stroke-width: 1.07; stroke: #FFFFFF; stroke-linecap: butt;' />
<polyline points='474.25,265.77 474.25,94.86 ' style='stroke-width: 1.07; stroke: #FFFFFF; stroke-linecap: butt;' />
<polyline points='491.00,265.77 491.00,94.86 ' style='stroke-width: 1.07; stroke: #FFFFFF; stroke-linecap: butt;' />
<polyline points='507.76,265.77 507.76,94.86 ' style='stroke-width: 1.07; stroke: #FFFFFF; stroke-linecap: butt;' />
<polyline points='524.51,265.77 524.51,94.86 ' style='stroke-width: 1.07; stroke: #FFFFFF; stroke-linecap: butt;' />
<polyline points='541.27,265.77 541.27,94.86 ' style='stroke-width: 1.07; stroke: #FFFFFF; stroke-linecap: butt;' />
<polyline points='558.03,265.77 558.03,94.86 ' style='stroke-width: 1.07; stroke: #FFFFFF; stroke-linecap: butt;' />
<polyline points='574.78,265.77 574.78,94.86 ' style='stroke-width: 1.07; stroke: #FFFFFF; stroke-linecap: butt;' />
<polyline points='591.54,265.77 591.54,94.86 ' style='stroke-width: 1.07; stroke: #FFFFFF; stroke-linecap: butt;' />
<polyline points='608.29,265.77 608.29,94.86 ' style='stroke-width: 1.07; stroke: #FFFFFF; stroke-linecap: butt;' />
<polyline points='625.05,265.77 625.05,94.86 ' style='stroke-width: 1.07; stroke: #FFFFFF; stroke-linecap: butt;' />
<polyline points='641.80,265.77 641.80,94.86 ' style='stroke-width: 1.07; stroke: #FFFFFF; stroke-linecap: butt;' />
<polyline points='658.56,265.77 658.56,94.86 ' style='stroke-width: 1.07; stroke: #FFFFFF; stroke-linecap: butt;' />
<polyline points='675.31,265.77 675.31,94.86 ' style='stroke-width: 1.07; stroke: #FFFFFF; stroke-linecap: butt;' />
<polyline points='692.07,265.77 692.07,94.86 ' style='stroke-width: 1.07; stroke: #FFFFFF; stroke-linecap: butt;' />
<polyline points='708.82,265.77 708.82,94.86 ' style='stroke-width: 1.07; stroke: #FFFFFF; stroke-linecap: butt;' />
<polyline points='725.58,265.77 725.58,94.86 ' style='stroke-width: 1.07; stroke: #FFFFFF; stroke-linecap: butt;' />
<polyline points='742.33,265.77 742.33,94.86 ' style='stroke-width: 1.07; stroke: #FFFFFF; stroke-linecap: butt;' />
<polyline points='759.09,265.77 759.09,94.86 ' style='stroke-width: 1.07; stroke: #FFFFFF; stroke-linecap: butt;' />
<polyline points='775.85,265.77 775.85,94.86 ' style='stroke-width: 1.07; stroke: #FFFFFF; stroke-linecap: butt;' />
<polyline points='792.60,265.77 792.60,94.86 ' style='stroke-width: 1.07; stroke: #FFFFFF; stroke-linecap: butt;' />
<rect x='231.29' y='247.33' width='16.76' height='16.76' style='stroke-width: 0.21; stroke: none; stroke-linecap: butt; stroke-linejoin: miter; fill: #FFFFFF;' />
<rect x='231.29' y='230.58' width='16.76' height='16.76' style='stroke-width: 0.21; stroke: none; stroke-linecap: butt; stroke-linejoin: miter; fill: #FFFFFF;' />
<rect x='231.29' y='213.82' width='16.76' height='16.76' style='stroke-width: 0.21; stroke: none; stroke-linecap: butt; stroke-linejoin: miter; fill: #C4B9B6;' />
<rect x='231.29' y='197.07' width='16.76' height='16.76' style='stroke-width: 0.21; stroke: none; stroke-linecap: butt; stroke-linejoin: miter; fill: #FFFFFF;' />
<rect x='231.29' y='180.31' width='16.76' height='16.76' style='stroke-width: 0.21; stroke: none; stroke-linecap: butt; stroke-linejoin: miter; fill: #FFFFFF;' />
<rect x='231.29' y='163.56' width='16.76' height='16.76' style='stroke-width: 0.21; stroke: none; stroke-linecap: butt; stroke-linejoin: miter; fill: #FFFFFF;' />
<rect x='231.29' y='146.80' width='16.76' height='16.76' style='stroke-width: 0.21; stroke: none; stroke-linecap: butt; stroke-linejoin: miter; fill: #FFFFFF;' />
<rect x='231.29' y='130.05' width='16.76' height='16.76' style='stroke-width: 0.21; stroke: none; stroke-linecap: butt; stroke-linejoin: miter; fill: #BEBEBE;' />
<rect x='231.29' y='113.29' width='16.76' height='16.76' style='stroke-width: 0.21; stroke: none; stroke-linecap: butt; stroke-linejoin: miter; fill: #BEBEBE;' />
<rect x='231.29' y='96.54' width='16.76' height='16.76' style='stroke-width: 0.21; stroke: none; stroke-linecap: butt; stroke-linejoin: miter; fill: #BEBEBE;' />
<rect x='248.05' y='247.33' width='16.76' height='16.76' style='stroke-width: 0.21; stroke: none; stroke-linecap: butt; stroke-linejoin: miter; fill: #FFFFFF;' />
<rect x='248.05' y='230.58' width='16.76' height='16.76' style='stroke-width: 0.21; stroke: none; stroke-linecap: butt; stroke-linejoin: miter; fill: #FFFFFF;' />
<rect x='248.05' y='213.82' width='16.76' height='16.76' style='stroke-width: 0.21; stroke: none; stroke-linecap: butt; stroke-linejoin: miter; fill: #FFFFFF;' />
<rect x='248.05' y='197.07' width='16.76' height='16.76' style='stroke-width: 0.21; stroke: none; stroke-linecap: butt; stroke-linejoin: miter; fill: #FFFFFF;' />
<rect x='248.05' y='180.31' width='16.76' height='16.76' style='stroke-width: 0.21; stroke: none; stroke-linecap: butt; stroke-linejoin: miter; fill: #FFFFFF;' />
<rect x='248.05' y='163.56' width='16.76' height='16.76' style='stroke-width: 0.21; stroke: none; stroke-linecap: butt; stroke-linejoin: miter; fill: #FFFFFF;' />
<rect x='248.05' y='146.80' width='16.76' height='16.76' style='stroke-width: 0.21; stroke: none; stroke-linecap: butt; stroke-linejoin: miter; fill: #C4B9B6;' />
<rect x='248.05' y='130.05' width='16.76' height='16.76' style='stroke-width: 0.21; stroke: none; stroke-linecap: butt; stroke-linejoin: miter; fill: #FFFFFF;' />
<rect x='248.05' y='113.29' width='16.76' height='16.76' style='stroke-width: 0.21; stroke: none; stroke-linecap: butt; stroke-linejoin: miter; fill: #FFFFFF;' />
<rect x='248.05' y='96.54' width='16.76' height='16.76' style='stroke-width: 0.21; stroke: none; stroke-linecap: butt; stroke-linejoin: miter; fill: #FFFFFF;' />
<rect x='264.81' y='247.33' width='16.76' height='16.76' style='stroke-width: 0.21; stroke: none; stroke-linecap: butt; stroke-linejoin: miter; fill: #FFFFFF;' />
<rect x='264.81' y='230.58' width='16.76' height='16.76' style='stroke-width: 0.21; stroke: none; stroke-linecap: butt; stroke-linejoin: miter; fill: #BEBEBE;' />
<rect x='264.81' y='213.82' width='16.76' height='16.76' style='stroke-width: 0.21; stroke: none; stroke-linecap: butt; stroke-linejoin: miter; fill: #C4B9B6;' />
<rect x='264.81' y='197.07' width='16.76' height='16.76' style='stroke-width: 0.21; stroke: none; stroke-linecap: butt; stroke-linejoin: miter; fill: #C9B4AF;' />
<rect x='264.81' y='180.31' width='16.76' height='16.76' style='stroke-width: 0.21; stroke: none; stroke-linecap: butt; stroke-linejoin: miter; fill: #C9B4AF;' />
<rect x='264.81' y='163.56' width='16.76' height='16.76' style='stroke-width: 0.21; stroke: none; stroke-linecap: butt; stroke-linejoin: miter; fill: #FFFFFF;' />
<rect x='264.81' y='146.80' width='16.76' height='16.76' style='stroke-width: 0.21; stroke: none; stroke-linecap: butt; stroke-linejoin: miter; fill: #FFFFFF;' />
<rect x='264.81' y='130.05' width='16.76' height='16.76' style='stroke-width: 0.21; stroke: none; stroke-linecap: butt; stroke-linejoin: miter; fill: #BEBEBE;' />
<rect x='264.81' y='113.29' width='16.76' height='16.76' style='stroke-width: 0.21; stroke: none; stroke-linecap: butt; stroke-linejoin: miter; fill: #BEBEBE;' />
<rect x='264.81' y='96.54' width='16.76' height='16.76' style='stroke-width: 0.21; stroke: none; stroke-linecap: butt; stroke-linejoin: miter; fill: #BEBEBE;' />
<rect x='281.56' y='247.33' width='16.76' height='16.76' style='stroke-width: 0.21; stroke: none; stroke-linecap: butt; stroke-linejoin: miter; fill: #CEAFA7;' />
<rect x='281.56' y='230.58' width='16.76' height='16.76' style='stroke-width: 0.21; stroke: none; stroke-linecap: butt; stroke-linejoin: miter; fill: #D3AA9F;' />
<rect x='281.56' y='213.82' width='16.76' height='16.76' style='stroke-width: 0.21; stroke: none; stroke-linecap: butt; stroke-linejoin: miter; fill: #BEBEBE;' />
<rect x='281.56' y='197.07' width='16.76' height='16.76' style='stroke-width: 0.21; stroke: none; stroke-linecap: butt; stroke-linejoin: miter; fill: #CEAFA7;' />
<rect x='281.56' y='180.31' width='16.76' height='16.76' style='stroke-width: 0.21; stroke: none; stroke-linecap: butt; stroke-linejoin: miter; fill: #BEBEBE;' />
<rect x='281.56' y='163.56' width='16.76' height='16.76' style='stroke-width: 0.21; stroke: none; stroke-linecap: butt; stroke-linejoin: miter; fill: #CEAFA7;' />
<rect x='281.56' y='146.80' width='16.76' height='16.76' style='stroke-width: 0.21; stroke: none; stroke-linecap: butt; stroke-linejoin: miter; fill: #C4B9B6;' />
<rect x='281.56' y='130.05' width='16.76' height='16.76' style='stroke-width: 0.21; stroke: none; stroke-linecap: butt; stroke-linejoin: miter; fill: #C9B4AF;' />
<rect x='281.56' y='113.29' width='16.76' height='16.76' style='stroke-width: 0.21; stroke: none; stroke-linecap: butt; stroke-linejoin: miter; fill: #BEBEBE;' />
<rect x='281.56' y='96.54' width='16.76' height='16.76' style='stroke-width: 0.21; stroke: none; stroke-linecap: butt; stroke-linejoin: miter; fill: #CEAFA7;' />
<rect x='298.32' y='247.33' width='16.76' height='16.76' style='stroke-width: 0.21; stroke: none; stroke-linecap: butt; stroke-linejoin: miter; fill: #BEBEBE;' />
<rect x='298.32' y='230.58' width='16.76' height='16.76' style='stroke-width: 0.21; stroke: none; stroke-linecap: butt; stroke-linejoin: miter; fill: #BEBEBE;' />
<rect x='298.32' y='213.82' width='16.76' height='16.76' style='stroke-width: 0.21; stroke: none; stroke-linecap: butt; stroke-linejoin: miter; fill: #C4B9B6;' />
<rect x='298.32' y='197.07' width='16.76' height='16.76' style='stroke-width: 0.21; stroke: none; stroke-linecap: butt; stroke-linejoin: miter; fill: #BEBEBE;' />
<rect x='298.32' y='180.31' width='16.76' height='16.76' style='stroke-width: 0.21; stroke: none; stroke-linecap: butt; stroke-linejoin: miter; fill: #BEBEBE;' />
<rect x='298.32' y='163.56' width='16.76' height='16.76' style='stroke-width: 0.21; stroke: none; stroke-linecap: butt; stroke-linejoin: miter; fill: #C9B4AF;' />
<rect x='298.32' y='146.80' width='16.76' height='16.76' style='stroke-width: 0.21; stroke: none; stroke-linecap: butt; stroke-linejoin: miter; fill: #BEBEBE;' />
<rect x='298.32' y='130.05' width='16.76' height='16.76' style='stroke-width: 0.21; stroke: none; stroke-linecap: butt; stroke-linejoin: miter; fill: #C9B4AF;' />
<rect x='298.32' y='113.29' width='16.76' height='16.76' style='stroke-width: 0.21; stroke: none; stroke-linecap: butt; stroke-linejoin: miter; fill: #FFFFFF;' />
<rect x='298.32' y='96.54' width='16.76' height='16.76' style='stroke-width: 0.21; stroke: none; stroke-linecap: butt; stroke-linejoin: miter; fill: #FFFFFF;' />
<rect x='315.07' y='247.33' width='16.76' height='16.76' style='stroke-width: 0.21; stroke: none; stroke-linecap: butt; stroke-linejoin: miter; fill: #FFFFFF;' />
<rect x='315.07' y='230.58' width='16.76' height='16.76' style='stroke-width: 0.21; stroke: none; stroke-linecap: butt; stroke-linejoin: miter; fill: #FFFFFF;' />
<rect x='315.07' y='213.82' width='16.76' height='16.76' style='stroke-width: 0.21; stroke: none; stroke-linecap: butt; stroke-linejoin: miter; fill: #FFFFFF;' />
<rect x='315.07' y='197.07' width='16.76' height='16.76' style='stroke-width: 0.21; stroke: none; stroke-linecap: butt; stroke-linejoin: miter; fill: #FFFFFF;' />
<rect x='315.07' y='180.31' width='16.76' height='16.76' style='stroke-width: 0.21; stroke: none; stroke-linecap: butt; stroke-linejoin: miter; fill: #FFFFFF;' />
<rect x='315.07' y='163.56' width='16.76' height='16.76' style='stroke-width: 0.21; stroke: none; stroke-linecap: butt; stroke-linejoin: miter; fill: #FFFFFF;' />
<rect x='315.07' y='146.80' width='16.76' height='16.76' style='stroke-width: 0.21; stroke: none; stroke-linecap: butt; stroke-linejoin: miter; fill: #FFFFFF;' />
<rect x='315.07' y='130.05' width='16.76' height='16.76' style='stroke-width: 0.21; stroke: none; stroke-linecap: butt; stroke-linejoin: miter; fill: #FFFFFF;' />
<rect x='315.07' y='113.29' width='16.76' height='16.76' style='stroke-width: 0.21; stroke: none; stroke-linecap: butt; stroke-linejoin: miter; fill: #FFFFFF;' />
<rect x='315.07' y='96.54' width='16.76' height='16.76' style='stroke-width: 0.21; stroke: none; stroke-linecap: butt; stroke-linejoin: miter; fill: #BEBEBE;' />
<rect x='331.83' y='247.33' width='16.76' height='16.76' style='stroke-width: 0.21; stroke: none; stroke-linecap: butt; stroke-linejoin: miter; fill: #FFFFFF;' />
<rect x='331.83' y='230.58' width='16.76' height='16.76' style='stroke-width: 0.21; stroke: none; stroke-linecap: butt; stroke-linejoin: miter; fill: #FFFFFF;' />
<rect x='331.83' y='213.82' width='16.76' height='16.76' style='stroke-width: 0.21; stroke: none; stroke-linecap: butt; stroke-linejoin: miter; fill: #FFFFFF;' />
<rect x='331.83' y='197.07' width='16.76' height='16.76' style='stroke-width: 0.21; stroke: none; stroke-linecap: butt; stroke-linejoin: miter; fill: #BEBEBE;' />
<rect x='331.83' y='180.31' width='16.76' height='16.76' style='stroke-width: 0.21; stroke: none; stroke-linecap: butt; stroke-linejoin: miter; fill: #FFFFFF;' />
<rect x='331.83' y='163.56' width='16.76' height='16.76' style='stroke-width: 0.21; stroke: none; stroke-linecap: butt; stroke-linejoin: miter; fill: #FFFFFF;' />
<rect x='331.83' y='146.80' width='16.76' height='16.76' style='stroke-width: 0.21; stroke: none; stroke-linecap: butt; stroke-linejoin: miter; fill: #BEBEBE;' />
<rect x='331.83' y='130.05' width='16.76' height='16.76' style='stroke-width: 0.21; stroke: none; stroke-linecap: butt; stroke-linejoin: miter; fill: #FFFFFF;' />
<rect x='331.83' y='113.29' width='16.76' height='16.76' style='stroke-width: 0.21; stroke: none; stroke-linecap: butt; stroke-linejoin: miter; fill: #FFFFFF;' />
<rect x='331.83' y='96.54' width='16.76' height='16.76' style='stroke-width: 0.21; stroke: none; stroke-linecap: butt; stroke-linejoin: miter; fill: #FFFFFF;' />
<rect x='348.58' y='247.33' width='16.76' height='16.76' style='stroke-width: 0.21; stroke: none; stroke-linecap: butt; stroke-linejoin: miter; fill: #FFFFFF;' />
<rect x='348.58' y='230.58' width='16.76' height='16.76' style='stroke-width: 0.21; stroke: none; stroke-linecap: butt; stroke-linejoin: miter; fill: #C9B4AF;' />
<rect x='348.58' y='213.82' width='16.76' height='16.76' style='stroke-width: 0.21; stroke: none; stroke-linecap: butt; stroke-linejoin: miter; fill: #C4B9B6;' />
<rect x='348.58' y='197.07' width='16.76' height='16.76' style='stroke-width: 0.21; stroke: none; stroke-linecap: butt; stroke-linejoin: miter; fill: #FFFFFF;' />
<rect x='348.58' y='180.31' width='16.76' height='16.76' style='stroke-width: 0.21; stroke: none; stroke-linecap: butt; stroke-linejoin: miter; fill: #C4B9B6;' />
<rect x='348.58' y='163.56' width='16.76' height='16.76' style='stroke-width: 0.21; stroke: none; stroke-linecap: butt; stroke-linejoin: miter; fill: #FFFFFF;' />
<rect x='348.58' y='146.80' width='16.76' height='16.76' style='stroke-width: 0.21; stroke: none; stroke-linecap: butt; stroke-linejoin: miter; fill: #FFFFFF;' />
<rect x='348.58' y='130.05' width='16.76' height='16.76' style='stroke-width: 0.21; stroke: none; stroke-linecap: butt; stroke-linejoin: miter; fill: #C9B4AF;' />
<rect x='348.58' y='113.29' width='16.76' height='16.76' style='stroke-width: 0.21; stroke: none; stroke-linecap: butt; stroke-linejoin: miter; fill: #C9B4AF;' />
<rect x='348.58' y='96.54' width='16.76' height='16.76' style='stroke-width: 0.21; stroke: none; stroke-linecap: butt; stroke-linejoin: miter; fill: #CEAFA7;' />
<rect x='365.34' y='247.33' width='16.76' height='16.76' style='stroke-width: 0.21; stroke: none; stroke-linecap: butt; stroke-linejoin: miter; fill: #FFFFFF;' />
<rect x='365.34' y='230.58' width='16.76' height='16.76' style='stroke-width: 0.21; stroke: none; stroke-linecap: butt; stroke-linejoin: miter; fill: #FFFFFF;' />
<rect x='365.34' y='213.82' width='16.76' height='16.76' style='stroke-width: 0.21; stroke: none; stroke-linecap: butt; stroke-linejoin: miter; fill: #FFFFFF;' />
<rect x='365.34' y='197.07' width='16.76' height='16.76' style='stroke-width: 0.21; stroke: none; stroke-linecap: butt; stroke-linejoin: miter; fill: #C4B9B6;' />
<rect x='365.34' y='180.31' width='16.76' height='16.76' style='stroke-width: 0.21; stroke: none; stroke-linecap: butt; stroke-linejoin: miter; fill: #FFFFFF;' />
<rect x='365.34' y='163.56' width='16.76' height='16.76' style='stroke-width: 0.21; stroke: none; stroke-linecap: butt; stroke-linejoin: miter; fill: #FFFFFF;' />
<rect x='365.34' y='146.80' width='16.76' height='16.76' style='stroke-width: 0.21; stroke: none; stroke-linecap: butt; stroke-linejoin: miter; fill: #FFFFFF;' />
<rect x='365.34' y='130.05' width='16.76' height='16.76' style='stroke-width: 0.21; stroke: none; stroke-linecap: butt; stroke-linejoin: miter; fill: #FFFFFF;' />
<rect x='365.34' y='113.29' width='16.76' height='16.76' style='stroke-width: 0.21; stroke: none; stroke-linecap: butt; stroke-linejoin: miter; fill: #FFFFFF;' />
<rect x='365.34' y='96.54' width='16.76' height='16.76' style='stroke-width: 0.21; stroke: none; stroke-linecap: butt; stroke-linejoin: miter; fill: #FFFFFF;' />
<rect x='382.09' y='247.33' width='16.76' height='16.76' style='stroke-width: 0.21; stroke: none; stroke-linecap: butt; stroke-linejoin: miter; fill: #BEBEBE;' />
<rect x='382.09' y='230.58' width='16.76' height='16.76' style='stroke-width: 0.21; stroke: none; stroke-linecap: butt; stroke-linejoin: miter; fill: #FFFFFF;' />
<rect x='382.09' y='213.82' width='16.76' height='16.76' style='stroke-width: 0.21; stroke: none; stroke-linecap: butt; stroke-linejoin: miter; fill: #C4B9B6;' />
<rect x='382.09' y='197.07' width='16.76' height='16.76' style='stroke-width: 0.21; stroke: none; stroke-linecap: butt; stroke-linejoin: miter; fill: #BEBEBE;' />
<rect x='382.09' y='180.31' width='16.76' height='16.76' style='stroke-width: 0.21; stroke: none; stroke-linecap: butt; stroke-linejoin: miter; fill: #FFFFFF;' />
<rect x='382.09' y='163.56' width='16.76' height='16.76' style='stroke-width: 0.21; stroke: none; stroke-linecap: butt; stroke-linejoin: miter; fill: #FFFFFF;' />
<rect x='382.09' y='146.80' width='16.76' height='16.76' style='stroke-width: 0.21; stroke: none; stroke-linecap: butt; stroke-linejoin: miter; fill: #CEAFA7;' />
<rect x='382.09' y='130.05' width='16.76' height='16.76' style='stroke-width: 0.21; stroke: none; stroke-linecap: butt; stroke-linejoin: miter; fill: #BEBEBE;' />
<rect x='382.09' y='113.29' width='16.76' height='16.76' style='stroke-width: 0.21; stroke: none; stroke-linecap: butt; stroke-linejoin: miter; fill: #FFFFFF;' />
<rect x='382.09' y='96.54' width='16.76' height='16.76' style='stroke-width: 0.21; stroke: none; stroke-linecap: butt; stroke-linejoin: miter; fill: #C9B4AF;' />
<rect x='398.85' y='247.33' width='16.76' height='16.76' style='stroke-width: 0.21; stroke: none; stroke-linecap: butt; stroke-linejoin: miter; fill: #C4B9B6;' />
<rect x='398.85' y='230.58' width='16.76' height='16.76' style='stroke-width: 0.21; stroke: none; stroke-linecap: butt; stroke-linejoin: miter; fill: #CEAFA7;' />
<rect x='398.85' y='213.82' width='16.76' height='16.76' style='stroke-width: 0.21; stroke: none; stroke-linecap: butt; stroke-linejoin: miter; fill: #BEBEBE;' />
<rect x='398.85' y='197.07' width='16.76' height='16.76' style='stroke-width: 0.21; stroke: none; stroke-linecap: butt; stroke-linejoin: miter; fill: #C4B9B6;' />
<rect x='398.85' y='180.31' width='16.76' height='16.76' style='stroke-width: 0.21; stroke: none; stroke-linecap: butt; stroke-linejoin: miter; fill: #FFFFFF;' />
<rect x='398.85' y='163.56' width='16.76' height='16.76' style='stroke-width: 0.21; stroke: none; stroke-linecap: butt; stroke-linejoin: miter; fill: #FFFFFF;' />
<rect x='398.85' y='146.80' width='16.76' height='16.76' style='stroke-width: 0.21; stroke: none; stroke-linecap: butt; stroke-linejoin: miter; fill: #BEBEBE;' />
<rect x='398.85' y='130.05' width='16.76' height='16.76' style='stroke-width: 0.21; stroke: none; stroke-linecap: butt; stroke-linejoin: miter; fill: #C4B9B6;' />
<rect x='398.85' y='113.29' width='16.76' height='16.76' style='stroke-width: 0.21; stroke: none; stroke-linecap: butt; stroke-linejoin: miter; fill: #FFFFFF;' />
<rect x='398.85' y='96.54' width='16.76' height='16.76' style='stroke-width: 0.21; stroke: none; stroke-linecap: butt; stroke-linejoin: miter; fill: #D7A598;' />
<rect x='415.60' y='247.33' width='16.76' height='16.76' style='stroke-width: 0.21; stroke: none; stroke-linecap: butt; stroke-linejoin: miter; fill: #FFFFFF;' />
<rect x='415.60' y='230.58' width='16.76' height='16.76' style='stroke-width: 0.21; stroke: none; stroke-linecap: butt; stroke-linejoin: miter; fill: #CEAFA7;' />
<rect x='415.60' y='213.82' width='16.76' height='16.76' style='stroke-width: 0.21; stroke: none; stroke-linecap: butt; stroke-linejoin: miter; fill: #D3AA9F;' />
<rect x='415.60' y='197.07' width='16.76' height='16.76' style='stroke-width: 0.21; stroke: none; stroke-linecap: butt; stroke-linejoin: miter; fill: #E5907A;' />
<rect x='415.60' y='180.31' width='16.76' height='16.76' style='stroke-width: 0.21; stroke: none; stroke-linecap: butt; stroke-linejoin: miter; fill: #CEAFA7;' />
<rect x='415.60' y='163.56' width='16.76' height='16.76' style='stroke-width: 0.21; stroke: none; stroke-linecap: butt; stroke-linejoin: miter; fill: #C9B4AF;' />
<rect x='415.60' y='146.80' width='16.76' height='16.76' style='stroke-width: 0.21; stroke: none; stroke-linecap: butt; stroke-linejoin: miter; fill: #FFFFFF;' />
<rect x='415.60' y='130.05' width='16.76' height='16.76' style='stroke-width: 0.21; stroke: none; stroke-linecap: butt; stroke-linejoin: miter; fill: #CEAFA7;' />
<rect x='415.60' y='113.29' width='16.76' height='16.76' style='stroke-width: 0.21; stroke: none; stroke-linecap: butt; stroke-linejoin: miter; fill: #C4B9B6;' />
<rect x='415.60' y='96.54' width='16.76' height='16.76' style='stroke-width: 0.21; stroke: none; stroke-linecap: butt; stroke-linejoin: miter; fill: #C9B4AF;' />
<rect x='432.36' y='247.33' width='16.76' height='16.76' style='stroke-width: 0.21; stroke: none; stroke-linecap: butt; stroke-linejoin: miter; fill: #C4B9B6;' />
<rect x='432.36' y='230.58' width='16.76' height='16.76' style='stroke-width: 0.21; stroke: none; stroke-linecap: butt; stroke-linejoin: miter; fill: #BEBEBE;' />
<rect x='432.36' y='213.82' width='16.76' height='16.76' style='stroke-width: 0.21; stroke: none; stroke-linecap: butt; stroke-linejoin: miter; fill: #C4B9B6;' />
<rect x='432.36' y='197.07' width='16.76' height='16.76' style='stroke-width: 0.21; stroke: none; stroke-linecap: butt; stroke-linejoin: miter; fill: #C4B9B6;' />
<rect x='432.36' y='180.31' width='16.76' height='16.76' style='stroke-width: 0.21; stroke: none; stroke-linecap: butt; stroke-linejoin: miter; fill: #BEBEBE;' />
<rect x='432.36' y='163.56' width='16.76' height='16.76' style='stroke-width: 0.21; stroke: none; stroke-linecap: butt; stroke-linejoin: miter; fill: #BEBEBE;' />
<rect x='432.36' y='146.80' width='16.76' height='16.76' style='stroke-width: 0.21; stroke: none; stroke-linecap: butt; stroke-linejoin: miter; fill: #FFFFFF;' />
<rect x='432.36' y='130.05' width='16.76' height='16.76' style='stroke-width: 0.21; stroke: none; stroke-linecap: butt; stroke-linejoin: miter; fill: #FFFFFF;' />
<rect x='432.36' y='113.29' width='16.76' height='16.76' style='stroke-width: 0.21; stroke: none; stroke-linecap: butt; stroke-linejoin: miter; fill: #C4B9B6;' />
<rect x='432.36' y='96.54' width='16.76' height='16.76' style='stroke-width: 0.21; stroke: none; stroke-linecap: butt; stroke-linejoin: miter; fill: #CEAFA7;' />
<rect x='449.11' y='247.33' width='16.76' height='16.76' style='stroke-width: 0.21; stroke: none; stroke-linecap: butt; stroke-linejoin: miter; fill: #FFFFFF;' />
<rect x='449.11' y='230.58' width='16.76' height='16.76' style='stroke-width: 0.21; stroke: none; stroke-linecap: butt; stroke-linejoin: miter; fill: #FFFFFF;' />
<rect x='449.11' y='213.82' width='16.76' height='16.76' style='stroke-width: 0.21; stroke: none; stroke-linecap: butt; stroke-linejoin: miter; fill: #FFFFFF;' />
<rect x='449.11' y='197.07' width='16.76' height='16.76' style='stroke-width: 0.21; stroke: none; stroke-linecap: butt; stroke-linejoin: miter; fill: #FFFFFF;' />
<rect x='449.11' y='180.31' width='16.76' height='16.76' style='stroke-width: 0.21; stroke: none; stroke-linecap: butt; stroke-linejoin: miter; fill: #FFFFFF;' />
<rect x='449.11' y='163.56' width='16.76' height='16.76' style='stroke-width: 0.21; stroke: none; stroke-linecap: butt; stroke-linejoin: miter; fill: #FFFFFF;' />
<rect x='449.11' y='146.80' width='16.76' height='16.76' style='stroke-width: 0.21; stroke: none; stroke-linecap: butt; stroke-linejoin: miter; fill: #FFFFFF;' />
<rect x='449.11' y='130.05' width='16.76' height='16.76' style='stroke-width: 0.21; stroke: none; stroke-linecap: butt; stroke-linejoin: miter; fill: #BEBEBE;' />
<rect x='449.11' y='113.29' width='16.76' height='16.76' style='stroke-width: 0.21; stroke: none; stroke-linecap: butt; stroke-linejoin: miter; fill: #FFFFFF;' />
<rect x='449.11' y='96.54' width='16.76' height='16.76' style='stroke-width: 0.21; stroke: none; stroke-linecap: butt; stroke-linejoin: miter; fill: #FFFFFF;' />
<rect x='465.87' y='247.33' width='16.76' height='16.76' style='stroke-width: 0.21; stroke: none; stroke-linecap: butt; stroke-linejoin: miter; fill: #BEBEBE;' />
<rect x='465.87' y='230.58' width='16.76' height='16.76' style='stroke-width: 0.21; stroke: none; stroke-linecap: butt; stroke-linejoin: miter; fill: #FFFFFF;' />
<rect x='465.87' y='213.82' width='16.76' height='16.76' style='stroke-width: 0.21; stroke: none; stroke-linecap: butt; stroke-linejoin: miter; fill: #FFFFFF;' />
<rect x='465.87' y='197.07' width='16.76' height='16.76' style='stroke-width: 0.21; stroke: none; stroke-linecap: butt; stroke-linejoin: miter; fill: #FFFFFF;' />
<rect x='465.87' y='180.31' width='16.76' height='16.76' style='stroke-width: 0.21; stroke: none; stroke-linecap: butt; stroke-linejoin: miter; fill: #C4B9B6;' />
<rect x='465.87' y='163.56' width='16.76' height='16.76' style='stroke-width: 0.21; stroke: none; stroke-linecap: butt; stroke-linejoin: miter; fill: #BEBEBE;' />
<rect x='465.87' y='146.80' width='16.76' height='16.76' style='stroke-width: 0.21; stroke: none; stroke-linecap: butt; stroke-linejoin: miter; fill: #FFFFFF;' />
<rect x='465.87' y='130.05' width='16.76' height='16.76' style='stroke-width: 0.21; stroke: none; stroke-linecap: butt; stroke-linejoin: miter; fill: #FFFFFF;' />
<rect x='465.87' y='113.29' width='16.76' height='16.76' style='stroke-width: 0.21; stroke: none; stroke-linecap: butt; stroke-linejoin: miter; fill: #FFFFFF;' />
<rect x='465.87' y='96.54' width='16.76' height='16.76' style='stroke-width: 0.21; stroke: none; stroke-linecap: butt; stroke-linejoin: miter; fill: #FFFFFF;' />
<rect x='482.63' y='247.33' width='16.76' height='16.76' style='stroke-width: 0.21; stroke: none; stroke-linecap: butt; stroke-linejoin: miter; fill: #BEBEBE;' />
<rect x='482.63' y='230.58' width='16.76' height='16.76' style='stroke-width: 0.21; stroke: none; stroke-linecap: butt; stroke-linejoin: miter; fill: #BEBEBE;' />
<rect x='482.63' y='213.82' width='16.76' height='16.76' style='stroke-width: 0.21; stroke: none; stroke-linecap: butt; stroke-linejoin: miter; fill: #FFFFFF;' />
<rect x='482.63' y='197.07' width='16.76' height='16.76' style='stroke-width: 0.21; stroke: none; stroke-linecap: butt; stroke-linejoin: miter; fill: #FFFFFF;' />
<rect x='482.63' y='180.31' width='16.76' height='16.76' style='stroke-width: 0.21; stroke: none; stroke-linecap: butt; stroke-linejoin: miter; fill: #C9B4AF;' />
<rect x='482.63' y='163.56' width='16.76' height='16.76' style='stroke-width: 0.21; stroke: none; stroke-linecap: butt; stroke-linejoin: miter; fill: #FFFFFF;' />
<rect x='482.63' y='146.80' width='16.76' height='16.76' style='stroke-width: 0.21; stroke: none; stroke-linecap: butt; stroke-linejoin: miter; fill: #C4B9B6;' />
<rect x='482.63' y='130.05' width='16.76' height='16.76' style='stroke-width: 0.21; stroke: none; stroke-linecap: butt; stroke-linejoin: miter; fill: #C4B9B6;' />
<rect x='482.63' y='113.29' width='16.76' height='16.76' style='stroke-width: 0.21; stroke: none; stroke-linecap: butt; stroke-linejoin: miter; fill: #BEBEBE;' />
<rect x='482.63' y='96.54' width='16.76' height='16.76' style='stroke-width: 0.21; stroke: none; stroke-linecap: butt; stroke-linejoin: miter; fill: #C9B4AF;' />
<rect x='499.38' y='247.33' width='16.76' height='16.76' style='stroke-width: 0.21; stroke: none; stroke-linecap: butt; stroke-linejoin: miter; fill: #FFFFFF;' />
<rect x='499.38' y='230.58' width='16.76' height='16.76' style='stroke-width: 0.21; stroke: none; stroke-linecap: butt; stroke-linejoin: miter; fill: #FFFFFF;' />
<rect x='499.38' y='213.82' width='16.76' height='16.76' style='stroke-width: 0.21; stroke: none; stroke-linecap: butt; stroke-linejoin: miter; fill: #FFFFFF;' />
<rect x='499.38' y='197.07' width='16.76' height='16.76' style='stroke-width: 0.21; stroke: none; stroke-linecap: butt; stroke-linejoin: miter; fill: #BEBEBE;' />
<rect x='499.38' y='180.31' width='16.76' height='16.76' style='stroke-width: 0.21; stroke: none; stroke-linecap: butt; stroke-linejoin: miter; fill: #FFFFFF;' />
<rect x='499.38' y='163.56' width='16.76' height='16.76' style='stroke-width: 0.21; stroke: none; stroke-linecap: butt; stroke-linejoin: miter; fill: #FFFFFF;' />
<rect x='499.38' y='146.80' width='16.76' height='16.76' style='stroke-width: 0.21; stroke: none; stroke-linecap: butt; stroke-linejoin: miter; fill: #FFFFFF;' />
<rect x='499.38' y='130.05' width='16.76' height='16.76' style='stroke-width: 0.21; stroke: none; stroke-linecap: butt; stroke-linejoin: miter; fill: #FFFFFF;' />
<rect x='499.38' y='113.29' width='16.76' height='16.76' style='stroke-width: 0.21; stroke: none; stroke-linecap: butt; stroke-linejoin: miter; fill: #FFFFFF;' />
<rect x='499.38' y='96.54' width='16.76' height='16.76' style='stroke-width: 0.21; stroke: none; stroke-linecap: butt; stroke-linejoin: miter; fill: #FFFFFF;' />
<rect x='516.14' y='247.33' width='16.76' height='16.76' style='stroke-width: 0.21; stroke: none; stroke-linecap: butt; stroke-linejoin: miter; fill: #C9B4AF;' />
<rect x='516.14' y='230.58' width='16.76' height='16.76' style='stroke-width: 0.21; stroke: none; stroke-linecap: butt; stroke-linejoin: miter; fill: #C4B9B6;' />
<rect x='516.14' y='213.82' width='16.76' height='16.76' style='stroke-width: 0.21; stroke: none; stroke-linecap: butt; stroke-linejoin: miter; fill: #C9B4AF;' />
<rect x='516.14' y='197.07' width='16.76' height='16.76' style='stroke-width: 0.21; stroke: none; stroke-linecap: butt; stroke-linejoin: miter; fill: #C9B4AF;' />
<rect x='516.14' y='180.31' width='16.76' height='16.76' style='stroke-width: 0.21; stroke: none; stroke-linecap: butt; stroke-linejoin: miter; fill: #BEBEBE;' />
<rect x='516.14' y='163.56' width='16.76' height='16.76' style='stroke-width: 0.21; stroke: none; stroke-linecap: butt; stroke-linejoin: miter; fill: #FFFFFF;' />
<rect x='516.14' y='146.80' width='16.76' height='16.76' style='stroke-width: 0.21; stroke: none; stroke-linecap: butt; stroke-linejoin: miter; fill: #BEBEBE;' />
<rect x='516.14' y='130.05' width='16.76' height='16.76' style='stroke-width: 0.21; stroke: none; stroke-linecap: butt; stroke-linejoin: miter; fill: #FFFFFF;' />
<rect x='516.14' y='113.29' width='16.76' height='16.76' style='stroke-width: 0.21; stroke: none; stroke-linecap: butt; stroke-linejoin: miter; fill: #BEBEBE;' />
<rect x='516.14' y='96.54' width='16.76' height='16.76' style='stroke-width: 0.21; stroke: none; stroke-linecap: butt; stroke-linejoin: miter; fill: #C4B9B6;' />
<rect x='532.89' y='247.33' width='16.76' height='16.76' style='stroke-width: 0.21; stroke: none; stroke-linecap: butt; stroke-linejoin: miter; fill: #BEBEBE;' />
<rect x='532.89' y='230.58' width='16.76' height='16.76' style='stroke-width: 0.21; stroke: none; stroke-linecap: butt; stroke-linejoin: miter; fill: #FFFFFF;' />
<rect x='532.89' y='213.82' width='16.76' height='16.76' style='stroke-width: 0.21; stroke: none; stroke-linecap: butt; stroke-linejoin: miter; fill: #FFFFFF;' />
<rect x='532.89' y='197.07' width='16.76' height='16.76' style='stroke-width: 0.21; stroke: none; stroke-linecap: butt; stroke-linejoin: miter; fill: #FFFFFF;' />
<rect x='532.89' y='180.31' width='16.76' height='16.76' style='stroke-width: 0.21; stroke: none; stroke-linecap: butt; stroke-linejoin: miter; fill: #FFFFFF;' />
<rect x='532.89' y='163.56' width='16.76' height='16.76' style='stroke-width: 0.21; stroke: none; stroke-linecap: butt; stroke-linejoin: miter; fill: #FFFFFF;' />
<rect x='532.89' y='146.80' width='16.76' height='16.76' style='stroke-width: 0.21; stroke: none; stroke-linecap: butt; stroke-linejoin: miter; fill: #BEBEBE;' />
<rect x='532.89' y='130.05' width='16.76' height='16.76' style='stroke-width: 0.21; stroke: none; stroke-linecap: butt; stroke-linejoin: miter; fill: #FFFFFF;' />
<rect x='532.89' y='113.29' width='16.76' height='16.76' style='stroke-width: 0.21; stroke: none; stroke-linecap: butt; stroke-linejoin: miter; fill: #FFFFFF;' />
<rect x='532.89' y='96.54' width='16.76' height='16.76' style='stroke-width: 0.21; stroke: none; stroke-linecap: butt; stroke-linejoin: miter; fill: #BEBEBE;' />
<rect x='549.65' y='247.33' width='16.76' height='16.76' style='stroke-width: 0.21; stroke: none; stroke-linecap: butt; stroke-linejoin: miter; fill: #DF9B89;' />
<rect x='549.65' y='230.58' width='16.76' height='16.76' style='stroke-width: 0.21; stroke: none; stroke-linecap: butt; stroke-linejoin: miter; fill: #FFFFFF;' />
<rect x='549.65' y='213.82' width='16.76' height='16.76' style='stroke-width: 0.21; stroke: none; stroke-linecap: butt; stroke-linejoin: miter; fill: #CEAFA7;' />
<rect x='549.65' y='197.07' width='16.76' height='16.76' style='stroke-width: 0.21; stroke: none; stroke-linecap: butt; stroke-linejoin: miter; fill: #CEAFA7;' />
<rect x='549.65' y='180.31' width='16.76' height='16.76' style='stroke-width: 0.21; stroke: none; stroke-linecap: butt; stroke-linejoin: miter; fill: #C4B9B6;' />
<rect x='549.65' y='163.56' width='16.76' height='16.76' style='stroke-width: 0.21; stroke: none; stroke-linecap: butt; stroke-linejoin: miter; fill: #C4B9B6;' />
<rect x='549.65' y='146.80' width='16.76' height='16.76' style='stroke-width: 0.21; stroke: none; stroke-linecap: butt; stroke-linejoin: miter; fill: #BEBEBE;' />
<rect x='549.65' y='130.05' width='16.76' height='16.76' style='stroke-width: 0.21; stroke: none; stroke-linecap: butt; stroke-linejoin: miter; fill: #BEBEBE;' />
<rect x='549.65' y='113.29' width='16.76' height='16.76' style='stroke-width: 0.21; stroke: none; stroke-linecap: butt; stroke-linejoin: miter; fill: #BEBEBE;' />
<rect x='549.65' y='96.54' width='16.76' height='16.76' style='stroke-width: 0.21; stroke: none; stroke-linecap: butt; stroke-linejoin: miter; fill: #BEBEBE;' />
<rect x='566.40' y='247.33' width='16.76' height='16.76' style='stroke-width: 0.21; stroke: none; stroke-linecap: butt; stroke-linejoin: miter; fill: #C4B9B6;' />
<rect x='566.40' y='230.58' width='16.76' height='16.76' style='stroke-width: 0.21; stroke: none; stroke-linecap: butt; stroke-linejoin: miter; fill: #BEBEBE;' />
<rect x='566.40' y='213.82' width='16.76' height='16.76' style='stroke-width: 0.21; stroke: none; stroke-linecap: butt; stroke-linejoin: miter; fill: #FFFFFF;' />
<rect x='566.40' y='197.07' width='16.76' height='16.76' style='stroke-width: 0.21; stroke: none; stroke-linecap: butt; stroke-linejoin: miter; fill: #FFFFFF;' />
<rect x='566.40' y='180.31' width='16.76' height='16.76' style='stroke-width: 0.21; stroke: none; stroke-linecap: butt; stroke-linejoin: miter; fill: #BEBEBE;' />
<rect x='566.40' y='163.56' width='16.76' height='16.76' style='stroke-width: 0.21; stroke: none; stroke-linecap: butt; stroke-linejoin: miter; fill: #FFFFFF;' />
<rect x='566.40' y='146.80' width='16.76' height='16.76' style='stroke-width: 0.21; stroke: none; stroke-linecap: butt; stroke-linejoin: miter; fill: #FFFFFF;' />
<rect x='566.40' y='130.05' width='16.76' height='16.76' style='stroke-width: 0.21; stroke: none; stroke-linecap: butt; stroke-linejoin: miter; fill: #FFFFFF;' />
<rect x='566.40' y='113.29' width='16.76' height='16.76' style='stroke-width: 0.21; stroke: none; stroke-linecap: butt; stroke-linejoin: miter; fill: #FFFFFF;' />
<rect x='566.40' y='96.54' width='16.76' height='16.76' style='stroke-width: 0.21; stroke: none; stroke-linecap: butt; stroke-linejoin: miter; fill: #FFFFFF;' />
<rect x='583.16' y='247.33' width='16.76' height='16.76' style='stroke-width: 0.21; stroke: none; stroke-linecap: butt; stroke-linejoin: miter; fill: #BEBEBE;' />
<rect x='583.16' y='230.58' width='16.76' height='16.76' style='stroke-width: 0.21; stroke: none; stroke-linecap: butt; stroke-linejoin: miter; fill: #C4B9B6;' />
<rect x='583.16' y='213.82' width='16.76' height='16.76' style='stroke-width: 0.21; stroke: none; stroke-linecap: butt; stroke-linejoin: miter; fill: #BEBEBE;' />
<rect x='583.16' y='197.07' width='16.76' height='16.76' style='stroke-width: 0.21; stroke: none; stroke-linecap: butt; stroke-linejoin: miter; fill: #C9B4AF;' />
<rect x='583.16' y='180.31' width='16.76' height='16.76' style='stroke-width: 0.21; stroke: none; stroke-linecap: butt; stroke-linejoin: miter; fill: #C4B9B6;' />
<rect x='583.16' y='163.56' width='16.76' height='16.76' style='stroke-width: 0.21; stroke: none; stroke-linecap: butt; stroke-linejoin: miter; fill: #FFFFFF;' />
<rect x='583.16' y='146.80' width='16.76' height='16.76' style='stroke-width: 0.21; stroke: none; stroke-linecap: butt; stroke-linejoin: miter; fill: #BEBEBE;' />
<rect x='583.16' y='130.05' width='16.76' height='16.76' style='stroke-width: 0.21; stroke: none; stroke-linecap: butt; stroke-linejoin: miter; fill: #CEAFA7;' />
<rect x='583.16' y='113.29' width='16.76' height='16.76' style='stroke-width: 0.21; stroke: none; stroke-linecap: butt; stroke-linejoin: miter; fill: #FFFFFF;' />
<rect x='583.16' y='96.54' width='16.76' height='16.76' style='stroke-width: 0.21; stroke: none; stroke-linecap: butt; stroke-linejoin: miter; fill: #BEBEBE;' />
<rect x='599.91' y='247.33' width='16.76' height='16.76' style='stroke-width: 0.21; stroke: none; stroke-linecap: butt; stroke-linejoin: miter; fill: #FFFFFF;' />
<rect x='599.91' y='230.58' width='16.76' height='16.76' style='stroke-width: 0.21; stroke: none; stroke-linecap: butt; stroke-linejoin: miter; fill: #FFFFFF;' />
<rect x='599.91' y='213.82' width='16.76' height='16.76' style='stroke-width: 0.21; stroke: none; stroke-linecap: butt; stroke-linejoin: miter; fill: #FFFFFF;' />
<rect x='599.91' y='197.07' width='16.76' height='16.76' style='stroke-width: 0.21; stroke: none; stroke-linecap: butt; stroke-linejoin: miter; fill: #BEBEBE;' />
<rect x='599.91' y='180.31' width='16.76' height='16.76' style='stroke-width: 0.21; stroke: none; stroke-linecap: butt; stroke-linejoin: miter; fill: #BEBEBE;' />
<rect x='599.91' y='163.56' width='16.76' height='16.76' style='stroke-width: 0.21; stroke: none; stroke-linecap: butt; stroke-linejoin: miter; fill: #BEBEBE;' />
<rect x='599.91' y='146.80' width='16.76' height='16.76' style='stroke-width: 0.21; stroke: none; stroke-linecap: butt; stroke-linejoin: miter; fill: #FFFFFF;' />
<rect x='599.91' y='130.05' width='16.76' height='16.76' style='stroke-width: 0.21; stroke: none; stroke-linecap: butt; stroke-linejoin: miter; fill: #FFFFFF;' />
<rect x='599.91' y='113.29' width='16.76' height='16.76' style='stroke-width: 0.21; stroke: none; stroke-linecap: butt; stroke-linejoin: miter; fill: #BEBEBE;' />
<rect x='599.91' y='96.54' width='16.76' height='16.76' style='stroke-width: 0.21; stroke: none; stroke-linecap: butt; stroke-linejoin: miter; fill: #C9B4AF;' />
<rect x='616.67' y='247.33' width='16.76' height='16.76' style='stroke-width: 0.21; stroke: none; stroke-linecap: butt; stroke-linejoin: miter; fill: #C9B4AF;' />
<rect x='616.67' y='230.58' width='16.76' height='16.76' style='stroke-width: 0.21; stroke: none; stroke-linecap: butt; stroke-linejoin: miter; fill: #FFFFFF;' />
<rect x='616.67' y='213.82' width='16.76' height='16.76' style='stroke-width: 0.21; stroke: none; stroke-linecap: butt; stroke-linejoin: miter; fill: #BEBEBE;' />
<rect x='616.67' y='197.07' width='16.76' height='16.76' style='stroke-width: 0.21; stroke: none; stroke-linecap: butt; stroke-linejoin: miter; fill: #C4B9B6;' />
<rect x='616.67' y='180.31' width='16.76' height='16.76' style='stroke-width: 0.21; stroke: none; stroke-linecap: butt; stroke-linejoin: miter; fill: #C4B9B6;' />
<rect x='616.67' y='163.56' width='16.76' height='16.76' style='stroke-width: 0.21; stroke: none; stroke-linecap: butt; stroke-linejoin: miter; fill: #BEBEBE;' />
<rect x='616.67' y='146.80' width='16.76' height='16.76' style='stroke-width: 0.21; stroke: none; stroke-linecap: butt; stroke-linejoin: miter; fill: #C4B9B6;' />
<rect x='616.67' y='130.05' width='16.76' height='16.76' style='stroke-width: 0.21; stroke: none; stroke-linecap: butt; stroke-linejoin: miter; fill: #BEBEBE;' />
<rect x='616.67' y='113.29' width='16.76' height='16.76' style='stroke-width: 0.21; stroke: none; stroke-linecap: butt; stroke-linejoin: miter; fill: #FFFFFF;' />
<rect x='616.67' y='96.54' width='16.76' height='16.76' style='stroke-width: 0.21; stroke: none; stroke-linecap: butt; stroke-linejoin: miter; fill: #FFFFFF;' />
<rect x='633.42' y='247.33' width='16.76' height='16.76' style='stroke-width: 0.21; stroke: none; stroke-linecap: butt; stroke-linejoin: miter; fill: #C4B9B6;' />
<rect x='633.42' y='230.58' width='16.76' height='16.76' style='stroke-width: 0.21; stroke: none; stroke-linecap: butt; stroke-linejoin: miter; fill: #C4B9B6;' />
<rect x='633.42' y='213.82' width='16.76' height='16.76' style='stroke-width: 0.21; stroke: none; stroke-linecap: butt; stroke-linejoin: miter; fill: #BEBEBE;' />
<rect x='633.42' y='197.07' width='16.76' height='16.76' style='stroke-width: 0.21; stroke: none; stroke-linecap: butt; stroke-linejoin: miter; fill: #FFFFFF;' />
<rect x='633.42' y='180.31' width='16.76' height='16.76' style='stroke-width: 0.21; stroke: none; stroke-linecap: butt; stroke-linejoin: miter; fill: #C4B9B6;' />
<rect x='633.42' y='163.56' width='16.76' height='16.76' style='stroke-width: 0.21; stroke: none; stroke-linecap: butt; stroke-linejoin: miter; fill: #BEBEBE;' />
<rect x='633.42' y='146.80' width='16.76' height='16.76' style='stroke-width: 0.21; stroke: none; stroke-linecap: butt; stroke-linejoin: miter; fill: #FFFFFF;' />
<rect x='633.42' y='130.05' width='16.76' height='16.76' style='stroke-width: 0.21; stroke: none; stroke-linecap: butt; stroke-linejoin: miter; fill: #BEBEBE;' />
<rect x='633.42' y='113.29' width='16.76' height='16.76' style='stroke-width: 0.21; stroke: none; stroke-linecap: butt; stroke-linejoin: miter; fill: #FFFFFF;' />
<rect x='633.42' y='96.54' width='16.76' height='16.76' style='stroke-width: 0.21; stroke: none; stroke-linecap: butt; stroke-linejoin: miter; fill: #FFFFFF;' />
<rect x='650.18' y='247.33' width='16.76' height='16.76' style='stroke-width: 0.21; stroke: none; stroke-linecap: butt; stroke-linejoin: miter; fill: #BEBEBE;' />
<rect x='650.18' y='230.58' width='16.76' height='16.76' style='stroke-width: 0.21; stroke: none; stroke-linecap: butt; stroke-linejoin: miter; fill: #FFFFFF;' />
<rect x='650.18' y='213.82' width='16.76' height='16.76' style='stroke-width: 0.21; stroke: none; stroke-linecap: butt; stroke-linejoin: miter; fill: #FFFFFF;' />
<rect x='650.18' y='197.07' width='16.76' height='16.76' style='stroke-width: 0.21; stroke: none; stroke-linecap: butt; stroke-linejoin: miter; fill: #D3AA9F;' />
<rect x='650.18' y='180.31' width='16.76' height='16.76' style='stroke-width: 0.21; stroke: none; stroke-linecap: butt; stroke-linejoin: miter; fill: #C4B9B6;' />
<rect x='650.18' y='163.56' width='16.76' height='16.76' style='stroke-width: 0.21; stroke: none; stroke-linecap: butt; stroke-linejoin: miter; fill: #BEBEBE;' />
<rect x='650.18' y='146.80' width='16.76' height='16.76' style='stroke-width: 0.21; stroke: none; stroke-linecap: butt; stroke-linejoin: miter; fill: #C4B9B6;' />
<rect x='650.18' y='130.05' width='16.76' height='16.76' style='stroke-width: 0.21; stroke: none; stroke-linecap: butt; stroke-linejoin: miter; fill: #C4B9B6;' />
<rect x='650.18' y='113.29' width='16.76' height='16.76' style='stroke-width: 0.21; stroke: none; stroke-linecap: butt; stroke-linejoin: miter; fill: #BEBEBE;' />
<rect x='650.18' y='96.54' width='16.76' height='16.76' style='stroke-width: 0.21; stroke: none; stroke-linecap: butt; stroke-linejoin: miter; fill: #BEBEBE;' />
<rect x='666.94' y='247.33' width='16.76' height='16.76' style='stroke-width: 0.21; stroke: none; stroke-linecap: butt; stroke-linejoin: miter; fill: #FFFFFF;' />
<rect x='666.94' y='230.58' width='16.76' height='16.76' style='stroke-width: 0.21; stroke: none; stroke-linecap: butt; stroke-linejoin: miter; fill: #BEBEBE;' />
<rect x='666.94' y='213.82' width='16.76' height='16.76' style='stroke-width: 0.21; stroke: none; stroke-linecap: butt; stroke-linejoin: miter; fill: #FFFFFF;' />
<rect x='666.94' y='197.07' width='16.76' height='16.76' style='stroke-width: 0.21; stroke: none; stroke-linecap: butt; stroke-linejoin: miter; fill: #FFFFFF;' />
<rect x='666.94' y='180.31' width='16.76' height='16.76' style='stroke-width: 0.21; stroke: none; stroke-linecap: butt; stroke-linejoin: miter; fill: #BEBEBE;' />
<rect x='666.94' y='163.56' width='16.76' height='16.76' style='stroke-width: 0.21; stroke: none; stroke-linecap: butt; stroke-linejoin: miter; fill: #BEBEBE;' />
<rect x='666.94' y='146.80' width='16.76' height='16.76' style='stroke-width: 0.21; stroke: none; stroke-linecap: butt; stroke-linejoin: miter; fill: #FFFFFF;' />
<rect x='666.94' y='130.05' width='16.76' height='16.76' style='stroke-width: 0.21; stroke: none; stroke-linecap: butt; stroke-linejoin: miter; fill: #FFFFFF;' />
<rect x='666.94' y='113.29' width='16.76' height='16.76' style='stroke-width: 0.21; stroke: none; stroke-linecap: butt; stroke-linejoin: miter; fill: #FFFFFF;' />
<rect x='666.94' y='96.54' width='16.76' height='16.76' style='stroke-width: 0.21; stroke: none; stroke-linecap: butt; stroke-linejoin: miter; fill: #BEBEBE;' />
<rect x='683.69' y='247.33' width='16.76' height='16.76' style='stroke-width: 0.21; stroke: none; stroke-linecap: butt; stroke-linejoin: miter; fill: #FFFFFF;' />
<rect x='683.69' y='230.58' width='16.76' height='16.76' style='stroke-width: 0.21; stroke: none; stroke-linecap: butt; stroke-linejoin: miter; fill: #FFFFFF;' />
<rect x='683.69' y='213.82' width='16.76' height='16.76' style='stroke-width: 0.21; stroke: none; stroke-linecap: butt; stroke-linejoin: miter; fill: #C4B9B6;' />
<rect x='683.69' y='197.07' width='16.76' height='16.76' style='stroke-width: 0.21; stroke: none; stroke-linecap: butt; stroke-linejoin: miter; fill: #BEBEBE;' />
<rect x='683.69' y='180.31' width='16.76' height='16.76' style='stroke-width: 0.21; stroke: none; stroke-linecap: butt; stroke-linejoin: miter; fill: #FFFFFF;' />
<rect x='683.69' y='163.56' width='16.76' height='16.76' style='stroke-width: 0.21; stroke: none; stroke-linecap: butt; stroke-linejoin: miter; fill: #FFFFFF;' />
<rect x='683.69' y='146.80' width='16.76' height='16.76' style='stroke-width: 0.21; stroke: none; stroke-linecap: butt; stroke-linejoin: miter; fill: #FFFFFF;' />
<rect x='683.69' y='130.05' width='16.76' height='16.76' style='stroke-width: 0.21; stroke: none; stroke-linecap: butt; stroke-linejoin: miter; fill: #C4B9B6;' />
<rect x='683.69' y='113.29' width='16.76' height='16.76' style='stroke-width: 0.21; stroke: none; stroke-linecap: butt; stroke-linejoin: miter; fill: #FFFFFF;' />
<rect x='683.69' y='96.54' width='16.76' height='16.76' style='stroke-width: 0.21; stroke: none; stroke-linecap: butt; stroke-linejoin: miter; fill: #FFFFFF;' />
<rect x='700.45' y='247.33' width='16.76' height='16.76' style='stroke-width: 0.21; stroke: none; stroke-linecap: butt; stroke-linejoin: miter; fill: #FFFFFF;' />
<rect x='700.45' y='230.58' width='16.76' height='16.76' style='stroke-width: 0.21; stroke: none; stroke-linecap: butt; stroke-linejoin: miter; fill: #BEBEBE;' />
<rect x='700.45' y='213.82' width='16.76' height='16.76' style='stroke-width: 0.21; stroke: none; stroke-linecap: butt; stroke-linejoin: miter; fill: #FFFFFF;' />
<rect x='700.45' y='197.07' width='16.76' height='16.76' style='stroke-width: 0.21; stroke: none; stroke-linecap: butt; stroke-linejoin: miter; fill: #BEBEBE;' />
<rect x='700.45' y='180.31' width='16.76' height='16.76' style='stroke-width: 0.21; stroke: none; stroke-linecap: butt; stroke-linejoin: miter; fill: #FFFFFF;' />
<rect x='700.45' y='163.56' width='16.76' height='16.76' style='stroke-width: 0.21; stroke: none; stroke-linecap: butt; stroke-linejoin: miter; fill: #FFFFFF;' />
<rect x='700.45' y='146.80' width='16.76' height='16.76' style='stroke-width: 0.21; stroke: none; stroke-linecap: butt; stroke-linejoin: miter; fill: #BEBEBE;' />
<rect x='700.45' y='130.05' width='16.76' height='16.76' style='stroke-width: 0.21; stroke: none; stroke-linecap: butt; stroke-linejoin: miter; fill: #FFFFFF;' />
<rect x='700.45' y='113.29' width='16.76' height='16.76' style='stroke-width: 0.21; stroke: none; stroke-linecap: butt; stroke-linejoin: miter; fill: #FFFFFF;' />
<rect x='700.45' y='96.54' width='16.76' height='16.76' style='stroke-width: 0.21; stroke: none; stroke-linecap: butt; stroke-linejoin: miter; fill: #FFFFFF;' />
<rect x='717.20' y='247.33' width='16.76' height='16.76' style='stroke-width: 0.21; stroke: none; stroke-linecap: butt; stroke-linejoin: miter; fill: #F95738;' />
<rect x='717.20' y='230.58' width='16.76' height='16.76' style='stroke-width: 0.21; stroke: none; stroke-linecap: butt; stroke-linejoin: miter; fill: #F27356;' />
<rect x='717.20' y='213.82' width='16.76' height='16.76' style='stroke-width: 0.21; stroke: none; stroke-linecap: butt; stroke-linejoin: miter; fill: #EB856B;' />
<rect x='717.20' y='197.07' width='16.76' height='16.76' style='stroke-width: 0.21; stroke: none; stroke-linecap: butt; stroke-linejoin: miter; fill: #E5907A;' />
<rect x='717.20' y='180.31' width='16.76' height='16.76' style='stroke-width: 0.21; stroke: none; stroke-linecap: butt; stroke-linejoin: miter; fill: #FE200D;' />
<rect x='717.20' y='163.56' width='16.76' height='16.76' style='stroke-width: 0.21; stroke: none; stroke-linecap: butt; stroke-linejoin: miter; fill: #ED7F64;' />
<rect x='717.20' y='146.80' width='16.76' height='16.76' style='stroke-width: 0.21; stroke: none; stroke-linecap: butt; stroke-linejoin: miter; fill: #EB856B;' />
<rect x='717.20' y='130.05' width='16.76' height='16.76' style='stroke-width: 0.21; stroke: none; stroke-linecap: butt; stroke-linejoin: miter; fill: #F0795D;' />
<rect x='717.20' y='113.29' width='16.76' height='16.76' style='stroke-width: 0.21; stroke: none; stroke-linecap: butt; stroke-linejoin: miter; fill: #D3AA9F;' />
<rect x='717.20' y='96.54' width='16.76' height='16.76' style='stroke-width: 0.21; stroke: none; stroke-linecap: butt; stroke-linejoin: miter; fill: #F0795D;' />
<rect x='733.96' y='247.33' width='16.76' height='16.76' style='stroke-width: 0.21; stroke: none; stroke-linecap: butt; stroke-linejoin: miter; fill: #FFFFFF;' />
<rect x='733.96' y='230.58' width='16.76' height='16.76' style='stroke-width: 0.21; stroke: none; stroke-linecap: butt; stroke-linejoin: miter; fill: #FFFFFF;' />
<rect x='733.96' y='213.82' width='16.76' height='16.76' style='stroke-width: 0.21; stroke: none; stroke-linecap: butt; stroke-linejoin: miter; fill: #FFFFFF;' />
<rect x='733.96' y='197.07' width='16.76' height='16.76' style='stroke-width: 0.21; stroke: none; stroke-linecap: butt; stroke-linejoin: miter; fill: #FFFFFF;' />
<rect x='733.96' y='180.31' width='16.76' height='16.76' style='stroke-width: 0.21; stroke: none; stroke-linecap: butt; stroke-linejoin: miter; fill: #FFFFFF;' />
<rect x='733.96' y='163.56' width='16.76' height='16.76' style='stroke-width: 0.21; stroke: none; stroke-linecap: butt; stroke-linejoin: miter; fill: #FFFFFF;' />
<rect x='733.96' y='146.80' width='16.76' height='16.76' style='stroke-width: 0.21; stroke: none; stroke-linecap: butt; stroke-linejoin: miter; fill: #FFFFFF;' />
<rect x='733.96' y='130.05' width='16.76' height='16.76' style='stroke-width: 0.21; stroke: none; stroke-linecap: butt; stroke-linejoin: miter; fill: #BEBEBE;' />
<rect x='733.96' y='113.29' width='16.76' height='16.76' style='stroke-width: 0.21; stroke: none; stroke-linecap: butt; stroke-linejoin: miter; fill: #FFFFFF;' />
<rect x='733.96' y='96.54' width='16.76' height='16.76' style='stroke-width: 0.21; stroke: none; stroke-linecap: butt; stroke-linejoin: miter; fill: #FFFFFF;' />
<rect x='750.71' y='247.33' width='16.76' height='16.76' style='stroke-width: 0.21; stroke: none; stroke-linecap: butt; stroke-linejoin: miter; fill: #BEBEBE;' />
<rect x='750.71' y='230.58' width='16.76' height='16.76' style='stroke-width: 0.21; stroke: none; stroke-linecap: butt; stroke-linejoin: miter; fill: #FFFFFF;' />
<rect x='750.71' y='213.82' width='16.76' height='16.76' style='stroke-width: 0.21; stroke: none; stroke-linecap: butt; stroke-linejoin: miter; fill: #FFFFFF;' />
<rect x='750.71' y='197.07' width='16.76' height='16.76' style='stroke-width: 0.21; stroke: none; stroke-linecap: butt; stroke-linejoin: miter; fill: #BEBEBE;' />
<rect x='750.71' y='180.31' width='16.76' height='16.76' style='stroke-width: 0.21; stroke: none; stroke-linecap: butt; stroke-linejoin: miter; fill: #BEBEBE;' />
<rect x='750.71' y='163.56' width='16.76' height='16.76' style='stroke-width: 0.21; stroke: none; stroke-linecap: butt; stroke-linejoin: miter; fill: #BEBEBE;' />
<rect x='750.71' y='146.80' width='16.76' height='16.76' style='stroke-width: 0.21; stroke: none; stroke-linecap: butt; stroke-linejoin: miter; fill: #FFFFFF;' />
<rect x='750.71' y='130.05' width='16.76' height='16.76' style='stroke-width: 0.21; stroke: none; stroke-linecap: butt; stroke-linejoin: miter; fill: #FFFFFF;' />
<rect x='750.71' y='113.29' width='16.76' height='16.76' style='stroke-width: 0.21; stroke: none; stroke-linecap: butt; stroke-linejoin: miter; fill: #BEBEBE;' />
<rect x='750.71' y='96.54' width='16.76' height='16.76' style='stroke-width: 0.21; stroke: none; stroke-linecap: butt; stroke-linejoin: miter; fill: #FFFFFF;' />
<rect x='767.47' y='247.33' width='16.76' height='16.76' style='stroke-width: 0.21; stroke: none; stroke-linecap: butt; stroke-linejoin: miter; fill: #FFFFFF;' />
<rect x='767.47' y='230.58' width='16.76' height='16.76' style='stroke-width: 0.21; stroke: none; stroke-linecap: butt; stroke-linejoin: miter; fill: #FFFFFF;' />
<rect x='767.47' y='213.82' width='16.76' height='16.76' style='stroke-width: 0.21; stroke: none; stroke-linecap: butt; stroke-linejoin: miter; fill: #FFFFFF;' />
<rect x='767.47' y='197.07' width='16.76' height='16.76' style='stroke-width: 0.21; stroke: none; stroke-linecap: butt; stroke-linejoin: miter; fill: #FFFFFF;' />
<rect x='767.47' y='180.31' width='16.76' height='16.76' style='stroke-width: 0.21; stroke: none; stroke-linecap: butt; stroke-linejoin: miter; fill: #FFFFFF;' />
<rect x='767.47' y='163.56' width='16.76' height='16.76' style='stroke-width: 0.21; stroke: none; stroke-linecap: butt; stroke-linejoin: miter; fill: #FFFFFF;' />
<rect x='767.47' y='146.80' width='16.76' height='16.76' style='stroke-width: 0.21; stroke: none; stroke-linecap: butt; stroke-linejoin: miter; fill: #FFFFFF;' />
<rect x='767.47' y='130.05' width='16.76' height='16.76' style='stroke-width: 0.21; stroke: none; stroke-linecap: butt; stroke-linejoin: miter; fill: #FFFFFF;' />
<rect x='767.47' y='113.29' width='16.76' height='16.76' style='stroke-width: 0.21; stroke: none; stroke-linecap: butt; stroke-linejoin: miter; fill: #BEBEBE;' />
<rect x='767.47' y='96.54' width='16.76' height='16.76' style='stroke-width: 0.21; stroke: none; stroke-linecap: butt; stroke-linejoin: miter; fill: #FFFFFF;' />
<rect x='784.22' y='247.33' width='16.76' height='16.76' style='stroke-width: 0.21; stroke: none; stroke-linecap: butt; stroke-linejoin: miter; fill: #FFFFFF;' />
<rect x='784.22' y='230.58' width='16.76' height='16.76' style='stroke-width: 0.21; stroke: none; stroke-linecap: butt; stroke-linejoin: miter; fill: #BEBEBE;' />
<rect x='784.22' y='213.82' width='16.76' height='16.76' style='stroke-width: 0.21; stroke: none; stroke-linecap: butt; stroke-linejoin: miter; fill: #FFFFFF;' />
<rect x='784.22' y='197.07' width='16.76' height='16.76' style='stroke-width: 0.21; stroke: none; stroke-linecap: butt; stroke-linejoin: miter; fill: #FFFFFF;' />
<rect x='784.22' y='180.31' width='16.76' height='16.76' style='stroke-width: 0.21; stroke: none; stroke-linecap: butt; stroke-linejoin: miter; fill: #FFFFFF;' />
<rect x='784.22' y='163.56' width='16.76' height='16.76' style='stroke-width: 0.21; stroke: none; stroke-linecap: butt; stroke-linejoin: miter; fill: #FFFFFF;' />
<rect x='784.22' y='146.80' width='16.76' height='16.76' style='stroke-width: 0.21; stroke: none; stroke-linecap: butt; stroke-linejoin: miter; fill: #FFFFFF;' />
<rect x='784.22' y='130.05' width='16.76' height='16.76' style='stroke-width: 0.21; stroke: none; stroke-linecap: butt; stroke-linejoin: miter; fill: #FFFFFF;' />
<rect x='784.22' y='113.29' width='16.76' height='16.76' style='stroke-width: 0.21; stroke: none; stroke-linecap: butt; stroke-linejoin: miter; fill: #FFFFFF;' />
<rect x='784.22' y='96.54' width='16.76' height='16.76' style='stroke-width: 0.21; stroke: none; stroke-linecap: butt; stroke-linejoin: miter; fill: #FFFFFF;' />
</g>
<g clip-path='url(#cpMC4wMHw4NjQuMDB8MC4wMHw0MzIuMDA=)'>
<text x='224.69' y='258.92' text-anchor='end' style='font-size: 8.80px;fill: #4D4D4D; font-family: "Arial";' textLength='162.00px' lengthAdjust='spacingAndGlyphs'>Bladder Urothelial Carcinoma [BLCA]</text>
<text x='224.69' y='242.16' text-anchor='end' style='font-size: 8.80px;fill: #4D4D4D; font-family: "Arial";' textLength='149.54px' lengthAdjust='spacingAndGlyphs'>Breast invasive carcinoma [BRCA]</text>
<text x='224.69' y='225.41' text-anchor='end' style='font-size: 8.80px;fill: #4D4D4D; font-family: "Arial";' textLength='136.31px' lengthAdjust='spacingAndGlyphs'>Colon adenocarcinoma [COAD]</text>
<text x='224.69' y='208.65' text-anchor='end' style='font-size: 8.80px;fill: #4D4D4D; font-family: "Arial";' textLength='132.54px' lengthAdjust='spacingAndGlyphs'>Esophageal carcinoma [ESCA]</text>
<text x='224.69' y='191.90' text-anchor='end' style='font-size: 8.80px;fill: #4D4D4D; font-family: "Arial";' textLength='175.97px' lengthAdjust='spacingAndGlyphs'>Kidney renal clear cell carcinoma [KIRC]</text>
<text x='224.69' y='175.14' text-anchor='end' style='font-size: 8.80px;fill: #4D4D4D; font-family: "Arial";' textLength='191.99px' lengthAdjust='spacingAndGlyphs'>Kidney renal papillary cell carcinoma [KIRP]</text>
<text x='224.69' y='158.39' text-anchor='end' style='font-size: 8.80px;fill: #4D4D4D; font-family: "Arial";' textLength='165.92px' lengthAdjust='spacingAndGlyphs'>Liver hepatocellular carcinoma [LIHC]</text>
<text x='224.69' y='141.63' text-anchor='end' style='font-size: 8.80px;fill: #4D4D4D; font-family: "Arial";' textLength='130.85px' lengthAdjust='spacingAndGlyphs'>Lung adenocarcinoma [LUAD]</text>
<text x='224.69' y='124.88' text-anchor='end' style='font-size: 8.80px;fill: #4D4D4D; font-family: "Arial";' textLength='115.45px' lengthAdjust='spacingAndGlyphs'>Thyroid carcinoma [THCA]</text>
<text x='224.69' y='108.12' text-anchor='end' style='font-size: 8.80px;fill: #4D4D4D; font-family: "Arial";' textLength='206.16px' lengthAdjust='spacingAndGlyphs'>Uterine Corpus Endometrial Carcinoma [UCEC]</text>
<polyline points='226.88,255.71 229.62,255.71 ' style='stroke-width: 1.07; stroke: #333333; stroke-linecap: butt;' />
<polyline points='226.88,238.96 229.62,238.96 ' style='stroke-width: 1.07; stroke: #333333; stroke-linecap: butt;' />
<polyline points='226.88,222.20 229.62,222.20 ' style='stroke-width: 1.07; stroke: #333333; stroke-linecap: butt;' />
<polyline points='226.88,205.45 229.62,205.45 ' style='stroke-width: 1.07; stroke: #333333; stroke-linecap: butt;' />
<polyline points='226.88,188.69 229.62,188.69 ' style='stroke-width: 1.07; stroke: #333333; stroke-linecap: butt;' />
<polyline points='226.88,171.94 229.62,171.94 ' style='stroke-width: 1.07; stroke: #333333; stroke-linecap: butt;' />
<polyline points='226.88,155.18 229.62,155.18 ' style='stroke-width: 1.07; stroke: #333333; stroke-linecap: butt;' />
<polyline points='226.88,138.42 229.62,138.42 ' style='stroke-width: 1.07; stroke: #333333; stroke-linecap: butt;' />
<polyline points='226.88,121.67 229.62,121.67 ' style='stroke-width: 1.07; stroke: #333333; stroke-linecap: butt;' />
<polyline points='226.88,104.91 229.62,104.91 ' style='stroke-width: 1.07; stroke: #333333; stroke-linecap: butt;' />
<polyline points='239.67,268.51 239.67,265.77 ' style='stroke-width: 1.07; stroke: #333333; stroke-linecap: butt;' />
<polyline points='256.43,268.51 256.43,265.77 ' style='stroke-width: 1.07; stroke: #333333; stroke-linecap: butt;' />
<polyline points='273.18,268.51 273.18,265.77 ' style='stroke-width: 1.07; stroke: #333333; stroke-linecap: butt;' />
<polyline points='289.94,268.51 289.94,265.77 ' style='stroke-width: 1.07; stroke: #333333; stroke-linecap: butt;' />
<polyline points='306.69,268.51 306.69,265.77 ' style='stroke-width: 1.07; stroke: #333333; stroke-linecap: butt;' />
<polyline points='323.45,268.51 323.45,265.77 ' style='stroke-width: 1.07; stroke: #333333; stroke-linecap: butt;' />
<polyline points='340.20,268.51 340.20,265.77 ' style='stroke-width: 1.07; stroke: #333333; stroke-linecap: butt;' />
<polyline points='356.96,268.51 356.96,265.77 ' style='stroke-width: 1.07; stroke: #333333; stroke-linecap: butt;' />
<polyline points='373.72,268.51 373.72,265.77 ' style='stroke-width: 1.07; stroke: #333333; stroke-linecap: butt;' />
<polyline points='390.47,268.51 390.47,265.77 ' style='stroke-width: 1.07; stroke: #333333; stroke-linecap: butt;' />
<polyline points='407.23,268.51 407.23,265.77 ' style='stroke-width: 1.07; stroke: #333333; stroke-linecap: butt;' />
<polyline points='423.98,268.51 423.98,265.77 ' style='stroke-width: 1.07; stroke: #333333; stroke-linecap: butt;' />
<polyline points='440.74,268.51 440.74,265.77 ' style='stroke-width: 1.07; stroke: #333333; stroke-linecap: butt;' />
<polyline points='457.49,268.51 457.49,265.77 ' style='stroke-width: 1.07; stroke: #333333; stroke-linecap: butt;' />
<polyline points='474.25,268.51 474.25,265.77 ' style='stroke-width: 1.07; stroke: #333333; stroke-linecap: butt;' />
<polyline points='491.00,268.51 491.00,265.77 ' style='stroke-width: 1.07; stroke: #333333; stroke-linecap: butt;' />
<polyline points='507.76,268.51 507.76,265.77 ' style='stroke-width: 1.07; stroke: #333333; stroke-linecap: butt;' />
<polyline points='524.51,268.51 524.51,265.77 ' style='stroke-width: 1.07; stroke: #333333; stroke-linecap: butt;' />
<polyline points='541.27,268.51 541.27,265.77 ' style='stroke-width: 1.07; stroke: #333333; stroke-linecap: butt;' />
<polyline points='558.03,268.51 558.03,265.77 ' style='stroke-width: 1.07; stroke: #333333; stroke-linecap: butt;' />
<polyline points='574.78,268.51 574.78,265.77 ' style='stroke-width: 1.07; stroke: #333333; stroke-linecap: butt;' />
<polyline points='591.54,268.51 591.54,265.77 ' style='stroke-width: 1.07; stroke: #333333; stroke-linecap: butt;' />
<polyline points='608.29,268.51 608.29,265.77 ' style='stroke-width: 1.07; stroke: #333333; stroke-linecap: butt;' />
<polyline points='625.05,268.51 625.05,265.77 ' style='stroke-width: 1.07; stroke: #333333; stroke-linecap: butt;' />
<polyline points='641.80,268.51 641.80,265.77 ' style='stroke-width: 1.07; stroke: #333333; stroke-linecap: butt;' />
<polyline points='658.56,268.51 658.56,265.77 ' style='stroke-width: 1.07; stroke: #333333; stroke-linecap: butt;' />
<polyline points='675.31,268.51 675.31,265.77 ' style='stroke-width: 1.07; stroke: #333333; stroke-linecap: butt;' />
<polyline points='692.07,268.51 692.07,265.77 ' style='stroke-width: 1.07; stroke: #333333; stroke-linecap: butt;' />
<polyline points='708.82,268.51 708.82,265.77 ' style='stroke-width: 1.07; stroke: #333333; stroke-linecap: butt;' />
<polyline points='725.58,268.51 725.58,265.77 ' style='stroke-width: 1.07; stroke: #333333; stroke-linecap: butt;' />
<polyline points='742.33,268.51 742.33,265.77 ' style='stroke-width: 1.07; stroke: #333333; stroke-linecap: butt;' />
<polyline points='759.09,268.51 759.09,265.77 ' style='stroke-width: 1.07; stroke: #333333; stroke-linecap: butt;' />
<polyline points='775.85,268.51 775.85,265.77 ' style='stroke-width: 1.07; stroke: #333333; stroke-linecap: butt;' />
<polyline points='792.60,268.51 792.60,265.77 ' style='stroke-width: 1.07; stroke: #333333; stroke-linecap: butt;' />
<text transform='translate(241.28,300.17) rotate(-30)' text-anchor='end' style='font-size: 8.80px;fill: #4D4D4D; font-family: "Arial";' textLength='60.61px' lengthAdjust='spacingAndGlyphs'>adrenal.gland</text>
<text transform='translate(258.03,300.17) rotate(-30)' text-anchor='end' style='font-size: 8.80px;fill: #4D4D4D; font-family: "Arial";' textLength='29.04px' lengthAdjust='spacingAndGlyphs'>atrium</text>
<text transform='translate(274.79,300.17) rotate(-30)' text-anchor='end' style='font-size: 8.80px;fill: #4D4D4D; font-family: "Arial";' textLength='58.18px' lengthAdjust='spacingAndGlyphs'>bone.marrow</text>
<text transform='translate(291.54,300.17) rotate(-30)' text-anchor='end' style='font-size: 8.80px;fill: #4D4D4D; font-family: "Arial";' textLength='22.62px' lengthAdjust='spacingAndGlyphs'>brain</text>
<text transform='translate(308.30,300.17) rotate(-30)' text-anchor='end' style='font-size: 8.80px;fill: #4D4D4D; font-family: "Arial";' textLength='66.68px' lengthAdjust='spacingAndGlyphs'>cerebral.cortex</text>
<text transform='translate(325.05,300.17) rotate(-30)' text-anchor='end' style='font-size: 8.80px;fill: #4D4D4D; font-family: "Arial";' textLength='70.51px' lengthAdjust='spacingAndGlyphs'>cortex.of.kidney</text>
<text transform='translate(341.81,300.17) rotate(-30)' text-anchor='end' style='font-size: 8.80px;fill: #4D4D4D; font-family: "Arial";' textLength='59.59px' lengthAdjust='spacingAndGlyphs'>endometrium</text>
<text transform='translate(358.56,300.17) rotate(-30)' text-anchor='end' style='font-size: 8.80px;fill: #4D4D4D; font-family: "Arial";' textLength='47.69px' lengthAdjust='spacingAndGlyphs'>esophagus</text>
<text transform='translate(375.32,300.17) rotate(-30)' text-anchor='end' style='font-size: 8.80px;fill: #4D4D4D; font-family: "Arial";' textLength='52.30px' lengthAdjust='spacingAndGlyphs'>gall.bladder</text>
<text transform='translate(392.07,300.17) rotate(-30)' text-anchor='end' style='font-size: 8.80px;fill: #4D4D4D; font-family: "Arial";' textLength='23.44px' lengthAdjust='spacingAndGlyphs'>heart</text>
<text transform='translate(408.83,300.17) rotate(-30)' text-anchor='end' style='font-size: 8.80px;fill: #4D4D4D; font-family: "Arial";' textLength='29.33px' lengthAdjust='spacingAndGlyphs'>kidney</text>
<text transform='translate(425.59,300.17) rotate(-30)' text-anchor='end' style='font-size: 8.80px;fill: #4D4D4D; font-family: "Arial";' textLength='19.13px' lengthAdjust='spacingAndGlyphs'>liver</text>
<text transform='translate(442.34,300.17) rotate(-30)' text-anchor='end' style='font-size: 8.80px;fill: #4D4D4D; font-family: "Arial";' textLength='19.18px' lengthAdjust='spacingAndGlyphs'>lung</text>
<text transform='translate(459.10,300.17) rotate(-30)' text-anchor='end' style='font-size: 8.80px;fill: #4D4D4D; font-family: "Arial";' textLength='88.00px' lengthAdjust='spacingAndGlyphs'>minor.salivary.gland</text>
<text transform='translate(475.85,300.17) rotate(-30)' text-anchor='end' style='font-size: 8.80px;fill: #4D4D4D; font-family: "Arial";' textLength='24.80px' lengthAdjust='spacingAndGlyphs'>ovary</text>
<text transform='translate(492.61,300.17) rotate(-30)' text-anchor='end' style='font-size: 8.80px;fill: #4D4D4D; font-family: "Arial";' textLength='40.20px' lengthAdjust='spacingAndGlyphs'>pancreas</text>
<text transform='translate(509.36,300.17) rotate(-30)' text-anchor='end' style='font-size: 8.80px;fill: #4D4D4D; font-family: "Arial";' textLength='58.65px' lengthAdjust='spacingAndGlyphs'>parotid.gland</text>
<text transform='translate(526.12,300.17) rotate(-30)' text-anchor='end' style='font-size: 8.80px;fill: #4D4D4D; font-family: "Arial";' textLength='54.24px' lengthAdjust='spacingAndGlyphs'>pineal.gland</text>
<text transform='translate(542.87,300.17) rotate(-30)' text-anchor='end' style='font-size: 8.80px;fill: #4D4D4D; font-family: "Arial";' textLength='63.30px' lengthAdjust='spacingAndGlyphs'>pituitary.gland</text>
<text transform='translate(559.63,300.17) rotate(-30)' text-anchor='end' style='font-size: 8.80px;fill: #4D4D4D; font-family: "Arial";' textLength='38.10px' lengthAdjust='spacingAndGlyphs'>placenta</text>
<text transform='translate(576.38,300.17) rotate(-30)' text-anchor='end' style='font-size: 8.80px;fill: #4D4D4D; font-family: "Arial";' textLength='36.68px' lengthAdjust='spacingAndGlyphs'>prostate</text>
<text transform='translate(593.14,300.17) rotate(-30)' text-anchor='end' style='font-size: 8.80px;fill: #4D4D4D; font-family: "Arial";' textLength='60.42px' lengthAdjust='spacingAndGlyphs'>salivary.gland</text>
<text transform='translate(609.90,300.17) rotate(-30)' text-anchor='end' style='font-size: 8.80px;fill: #4D4D4D; font-family: "Arial";' textLength='61.03px' lengthAdjust='spacingAndGlyphs'>sigmoid.colon</text>
<text transform='translate(626.65,300.17) rotate(-30)' text-anchor='end' style='font-size: 8.80px;fill: #4D4D4D; font-family: "Arial";' textLength='68.16px' lengthAdjust='spacingAndGlyphs'>skeletal.muscle</text>
<text transform='translate(643.41,300.17) rotate(-30)' text-anchor='end' style='font-size: 8.80px;fill: #4D4D4D; font-family: "Arial";' textLength='17.70px' lengthAdjust='spacingAndGlyphs'>skin</text>
<text transform='translate(660.16,300.17) rotate(-30)' text-anchor='end' style='font-size: 8.80px;fill: #4D4D4D; font-family: "Arial";' textLength='64.59px' lengthAdjust='spacingAndGlyphs'>small.intestine</text>
<text transform='translate(676.92,300.17) rotate(-30)' text-anchor='end' style='font-size: 8.80px;fill: #4D4D4D; font-family: "Arial";' textLength='29.02px' lengthAdjust='spacingAndGlyphs'>spleen</text>
<text transform='translate(693.67,300.17) rotate(-30)' text-anchor='end' style='font-size: 8.80px;fill: #4D4D4D; font-family: "Arial";' textLength='37.79px' lengthAdjust='spacingAndGlyphs'>stomach</text>
<text transform='translate(710.43,300.17) rotate(-30)' text-anchor='end' style='font-size: 8.80px;fill: #4D4D4D; font-family: "Arial";' textLength='92.51px' lengthAdjust='spacingAndGlyphs'>submandibular.gland</text>
<text transform='translate(727.18,300.17) rotate(-30)' text-anchor='end' style='font-size: 8.80px;fill: #4D4D4D; font-family: "Arial";' textLength='23.93px' lengthAdjust='spacingAndGlyphs'>testis</text>
<text transform='translate(743.94,300.17) rotate(-30)' text-anchor='end' style='font-size: 8.80px;fill: #4D4D4D; font-family: "Arial";' textLength='31.07px' lengthAdjust='spacingAndGlyphs'>thyroid</text>
<text transform='translate(760.69,300.17) rotate(-30)' text-anchor='end' style='font-size: 8.80px;fill: #4D4D4D; font-family: "Arial";' textLength='30.98px' lengthAdjust='spacingAndGlyphs'>tongue</text>
<text transform='translate(777.45,300.17) rotate(-30)' text-anchor='end' style='font-size: 8.80px;fill: #4D4D4D; font-family: "Arial";' textLength='73.27px' lengthAdjust='spacingAndGlyphs'>transverse.colon</text>
<text transform='translate(794.21,300.17) rotate(-30)' text-anchor='end' style='font-size: 8.80px;fill: #4D4D4D; font-family: "Arial";' textLength='52.12px' lengthAdjust='spacingAndGlyphs'>zone.of.skin</text>
<rect x='813.61' y='123.74' width='44.91' height='113.15' style='stroke-width: 1.07; stroke: none; fill: #FFFFFF;' />
<image width='17.28' height='86.40' x='819.09' y='145.01' preserveAspectRatio='none' xlink:href='data:image/png;base64,iVBORw0KGgoAAAANSUhEUgAAAAEAAAEsCAYAAAACUNnVAAAAuklEQVQ4jZ1SQRLDQAhC2/9/mR7SuFFxk/aS0VURMCBAx9vw/bwi8kjd4PR4Oz5+RmYpMuTUWkpDqq6xmzcEgGjBbgIoexETWxSgb4NKg5oAeIIMMZFTToWyg3K5aKmEuiJit41K2+jGH/B5AsK6CZ4/c75YMhby9Tm6+0DMgheEWnP03atUnlZC4+yicUmnP2e6QnGS6uazxV1qUcTRAyGL+4I42VgoemufOGhlKgpEYdVt2iPLvjP6AO7MRpD8SpdIAAAAAElFTkSuQmCC'/>
<text x='841.85' y='220.12' style='font-size: 8.80px; font-family: "Arial";' textLength='5.59px' lengthAdjust='spacingAndGlyphs'>5</text>
<text x='841.85' y='202.18' style='font-size: 8.80px; font-family: "Arial";' textLength='11.19px' lengthAdjust='spacingAndGlyphs'>10</text>
<text x='841.85' y='184.24' style='font-size: 8.80px; font-family: "Arial";' textLength='11.19px' lengthAdjust='spacingAndGlyphs'>15</text>
<text x='841.85' y='166.30' style='font-size: 8.80px; font-family: "Arial";' textLength='11.19px' lengthAdjust='spacingAndGlyphs'>20</text>
<text x='841.85' y='148.36' style='font-size: 8.80px; font-family: "Arial";' textLength='11.19px' lengthAdjust='spacingAndGlyphs'>25</text>
<line x1='819.09' y1='216.91' x2='822.55' y2='216.91' style='stroke-width: 0.38; stroke: #FFFFFF; stroke-linecap: butt;' />
<line x1='819.09' y1='198.97' x2='822.55' y2='198.97' style='stroke-width: 0.38; stroke: #FFFFFF; stroke-linecap: butt;' />
<line x1='819.09' y1='181.03' x2='822.55' y2='181.03' style='stroke-width: 0.38; stroke: #FFFFFF; stroke-linecap: butt;' />
<line x1='819.09' y1='163.09' x2='822.55' y2='163.09' style='stroke-width: 0.38; stroke: #FFFFFF; stroke-linecap: butt;' />
<line x1='819.09' y1='145.15' x2='822.55' y2='145.15' style='stroke-width: 0.38; stroke: #FFFFFF; stroke-linecap: butt;' />
<line x1='832.92' y1='216.91' x2='836.37' y2='216.91' style='stroke-width: 0.38; stroke: #FFFFFF; stroke-linecap: butt;' />
<line x1='832.92' y1='198.97' x2='836.37' y2='198.97' style='stroke-width: 0.38; stroke: #FFFFFF; stroke-linecap: butt;' />
<line x1='832.92' y1='181.03' x2='836.37' y2='181.03' style='stroke-width: 0.38; stroke: #FFFFFF; stroke-linecap: butt;' />
<line x1='832.92' y1='163.09' x2='836.37' y2='163.09' style='stroke-width: 0.38; stroke: #FFFFFF; stroke-linecap: butt;' />
<line x1='832.92' y1='145.15' x2='836.37' y2='145.15' style='stroke-width: 0.38; stroke: #FFFFFF; stroke-linecap: butt;' />
</g>
</svg>
